%YAML 1.1
%TAG !u! tag:unity3d.com,2011:
--- !u!1 &557840483889883142
GameObject:
  m_ObjectHideFlags: 0
  m_CorrespondingSourceObject: {fileID: 0}
  m_PrefabInstance: {fileID: 0}
  m_PrefabAsset: {fileID: 0}
  serializedVersion: 6
  m_Component:
  - component: {fileID: 4775766894331971197}
  m_Layer: 0
  m_Name: Door_04
  m_TagString: Untagged
  m_Icon: {fileID: 0}
  m_NavMeshLayer: 0
  m_StaticEditorFlags: 0
  m_IsActive: 1
--- !u!4 &4775766894331971197
Transform:
  m_ObjectHideFlags: 0
  m_CorrespondingSourceObject: {fileID: 0}
  m_PrefabInstance: {fileID: 0}
  m_PrefabAsset: {fileID: 0}
  m_GameObject: {fileID: 557840483889883142}
  m_LocalRotation: {x: 0, y: 0, z: 0, w: 1}
  m_LocalPosition: {x: 0, y: 0, z: 0}
  m_LocalScale: {x: 1, y: 1, z: 1}
  m_Children:
  - {fileID: 6520374222569569815}
  m_Father: {fileID: 0}
  m_RootOrder: 0
  m_LocalEulerAnglesHint: {x: 0, y: 0, z: 0}
--- !u!1001 &6520374222569079909
PrefabInstance:
  m_ObjectHideFlags: 0
  serializedVersion: 2
  m_Modification:
    m_TransformParent: {fileID: 4775766894331971197}
    m_Modifications:
    - target: {fileID: 146612, guid: d13d0e0028bfc7c46bc5d73fa7c0bcbb, type: 3}
      propertyPath: m_Name
      value: SM_Bld_Stall_Cover_04
      objectReference: {fileID: 0}
    - target: {fileID: 490098, guid: d13d0e0028bfc7c46bc5d73fa7c0bcbb, type: 3}
      propertyPath: m_LocalPosition.x
      value: 0
      objectReference: {fileID: 0}
    - target: {fileID: 490098, guid: d13d0e0028bfc7c46bc5d73fa7c0bcbb, type: 3}
      propertyPath: m_LocalPosition.y
      value: 0
      objectReference: {fileID: 0}
    - target: {fileID: 490098, guid: d13d0e0028bfc7c46bc5d73fa7c0bcbb, type: 3}
      propertyPath: m_LocalPosition.z
      value: 0
      objectReference: {fileID: 0}
    - target: {fileID: 490098, guid: d13d0e0028bfc7c46bc5d73fa7c0bcbb, type: 3}
      propertyPath: m_LocalRotation.x
      value: 0
      objectReference: {fileID: 0}
    - target: {fileID: 490098, guid: d13d0e0028bfc7c46bc5d73fa7c0bcbb, type: 3}
      propertyPath: m_LocalRotation.y
      value: 0.7071068
      objectReference: {fileID: 0}
    - target: {fileID: 490098, guid: d13d0e0028bfc7c46bc5d73fa7c0bcbb, type: 3}
      propertyPath: m_LocalRotation.z
      value: 0
      objectReference: {fileID: 0}
    - target: {fileID: 490098, guid: d13d0e0028bfc7c46bc5d73fa7c0bcbb, type: 3}
      propertyPath: m_LocalRotation.w
      value: 0.7071068
      objectReference: {fileID: 0}
    - target: {fileID: 490098, guid: d13d0e0028bfc7c46bc5d73fa7c0bcbb, type: 3}
      propertyPath: m_RootOrder
      value: 0
      objectReference: {fileID: 0}
    - target: {fileID: 490098, guid: d13d0e0028bfc7c46bc5d73fa7c0bcbb, type: 3}
      propertyPath: m_LocalEulerAnglesHint.x
      value: 0
      objectReference: {fileID: 0}
    - target: {fileID: 490098, guid: d13d0e0028bfc7c46bc5d73fa7c0bcbb, type: 3}
      propertyPath: m_LocalEulerAnglesHint.y
      value: 90
      objectReference: {fileID: 0}
    - target: {fileID: 490098, guid: d13d0e0028bfc7c46bc5d73fa7c0bcbb, type: 3}
      propertyPath: m_LocalEulerAnglesHint.z
      value: 0
      objectReference: {fileID: 0}
    m_RemovedComponents: []
  m_SourcePrefab: {fileID: 100100000, guid: d13d0e0028bfc7c46bc5d73fa7c0bcbb, type: 3}
--- !u!4 &6520374222569569815 stripped
Transform:
  m_CorrespondingSourceObject: {fileID: 490098, guid: d13d0e0028bfc7c46bc5d73fa7c0bcbb,
    type: 3}
  m_PrefabInstance: {fileID: 6520374222569079909}
  m_PrefabAsset: {fileID: 0}
