%YAML 1.1
%TAG !u! tag:unity3d.com,2011:
--- !u!687078895 &4343727234628468602
SpriteAtlas:
  m_ObjectHideFlags: 0
  m_CorrespondingSourceObject: {fileID: 0}
  m_PrefabInstance: {fileID: 0}
  m_PrefabAsset: {fileID: 0}
  m_Name: FlatConsBG
  m_EditorData:
    serializedVersion: 2
    textureSettings:
      serializedVersion: 2
      anisoLevel: 1
      compressionQuality: 50
      maxTextureSize: 2048
      textureCompression: 0
      filterMode: 1
      generateMipMaps: 0
      readable: 0
      crunchedCompression: 0
      sRGB: 1
    platformSettings:
    - serializedVersion: 2
      m_BuildTarget: Standalone
      m_MaxTextureSize: 2048
      m_ResizeAlgorithm: 0
      m_TextureFormat: 12
      m_TextureCompression: 1
      m_CompressionQuality: 50
      m_CrunchedCompression: 0
      m_AllowsAlphaSplitting: 0
      m_Overridden: 1
      m_AndroidETC2FallbackOverride: 0
    - serializedVersion: 2
      m_BuildTarget: iPhone
      m_MaxTextureSize: 2048
      m_ResizeAlgorithm: 0
      m_TextureFormat: 50
      m_TextureCompression: 1
      m_CompressionQuality: 50
      m_CrunchedCompression: 0
      m_AllowsAlphaSplitting: 0
      m_Overridden: 1
      m_AndroidETC2FallbackOverride: 0
    packingSettings:
      serializedVersion: 2
      padding: 4
      blockOffset: 1
      allowAlphaSplitting: 0
      enableRotation: 0
      enableTightPacking: 0
    variantMultiplier: 1
    packables:
    - {fileID: 102900000, guid: 4a604f6ff0a693c41b3c4524a4c90419, type: 3}
    totalSpriteSurfaceArea: 13107200
    bindAsDefault: 1
  m_MasterAtlas: {fileID: 0}
  m_PackedSprites:
  - {fileID: 21300000, guid: 62b4a3006dd3efe4593d3e826cef4c77, type: 3}
  - {fileID: 21300000, guid: ba763a006c0afc043bc4c4b6afcbddb0, type: 3}
  - {fileID: 21300000, guid: e99a6d0049de2b949960c97736a89d42, type: 3}
  - {fileID: 21300000, guid: 21d9a7100d4f95f4997b8b0a3c9754f3, type: 3}
  - {fileID: 21300000, guid: a110f420305ca4e4296358b16c9d1f9e, type: 3}
  - {fileID: 21300000, guid: 406c3620fb4b3154fba4c236009ab7ed, type: 3}
  - {fileID: 21300000, guid: ab3bf030a88807242b9ef229c6881d28, type: 3}
  - {fileID: 21300000, guid: e464564050bb8a64491a020133a7bbd3, type: 3}
  - {fileID: 21300000, guid: 84960740c24d08f4aaa9936d6d7e8221, type: 3}
  - {fileID: 21300000, guid: 023e1550e60a7e941b439fd5d719d3cf, type: 3}
  - {fileID: 21300000, guid: 353d6170111a9a946921c373a5a2ce4a, type: 3}
  - {fileID: 21300000, guid: bada4590e00b8524d91fdab40f085d62, type: 3}
  - {fileID: 21300000, guid: 12d3e0d08b4e297478a5f497eab5eef1, type: 3}
  - {fileID: 21300000, guid: ff4042e0a0ed3bb4c8b81bce41a36fda, type: 3}
  - {fileID: 21300000, guid: bd69cde01403ade4fb36c66e78d1e0cf, type: 3}
  - {fileID: 21300000, guid: ea83100173a32804c89eda0e6452ae54, type: 3}
  - {fileID: 21300000, guid: c21fae11f79ff494f8e2074463226f0f, type: 3}
  - {fileID: 21300000, guid: c6749e31311130847b3bf875a81d2599, type: 3}
  - {fileID: 21300000, guid: 34d40d519d861dc4c8a7dc8c22f3b28a, type: 3}
  - {fileID: 21300000, guid: 37c4a8616c2d4944f9c4d7f3a2ff53f6, type: 3}
  - {fileID: 21300000, guid: bd1687912cfa86e4ab7377098d3f1079, type: 3}
  - {fileID: 21300000, guid: fc8fad916ee45b146b074ee7b6a57883, type: 3}
  - {fileID: 21300000, guid: 8e35f0e1e9c179e4fb0848aebd3e2071, type: 3}
  - {fileID: 21300000, guid: b8048812112ed49429160bf6c7524751, type: 3}
  - {fileID: 21300000, guid: a4490c22b7c391a48a554f7d66a93ae7, type: 3}
  - {fileID: 21300000, guid: 5409f3520731972478f78135e7d1e90c, type: 3}
  - {fileID: 21300000, guid: ebf78972923d13d4089579c6dc77962e, type: 3}
  - {fileID: 21300000, guid: 4a33b3a2f436206438c3ab58854336ea, type: 3}
  - {fileID: 21300000, guid: bf51faa2b95f2594fafcf286050a193e, type: 3}
  - {fileID: 21300000, guid: 379443b281a21194fb0d8d663576dfcb, type: 3}
  - {fileID: 21300000, guid: c299c2c25fa42e0429b86e12c21445bd, type: 3}
  - {fileID: 21300000, guid: 79a144c29350f134a8c1c224d80adbaa, type: 3}
  - {fileID: 21300000, guid: a4410ec2215e0dd4fbad53fc2625b261, type: 3}
  - {fileID: 21300000, guid: 3246ddd28c2bddb478e8e678bf915226, type: 3}
  - {fileID: 21300000, guid: b3d2a6e2b1bed2c44858f7ae05b9f8bd, type: 3}
  - {fileID: 21300000, guid: 6c705fe29b621ca4fa77803db0d7ccfd, type: 3}
  - {fileID: 21300000, guid: 93bb034399bd9b647a0efc5fa0f97d89, type: 3}
  - {fileID: 21300000, guid: 44228a433f0adea4ca9c7412f04471f0, type: 3}
  - {fileID: 21300000, guid: 96c52f631a4be1e4198ec8c86df82e84, type: 3}
  - {fileID: 21300000, guid: c97da173da9c2204bbaf806c7a8b0fe7, type: 3}
  - {fileID: 21300000, guid: 3e2693737501ae446a0c97bc2219a357, type: 3}
  - {fileID: 21300000, guid: 5d49fb7361061364f88eb1742f6ffc16, type: 3}
  - {fileID: 21300000, guid: c7faf89303657924080476ec27b36c78, type: 3}
  - {fileID: 21300000, guid: 75c112b33ef62014ab20915dca437cbf, type: 3}
  - {fileID: 21300000, guid: 2568a8b3f6174014c92a9735976eee7b, type: 3}
  - {fileID: 21300000, guid: 86affcc3bc48a3c47b56d8883903e093, type: 3}
  - {fileID: 21300000, guid: c69354e319f163248acee869af40c29a, type: 3}
  - {fileID: 21300000, guid: d248fde349247bc42a60751462cea20d, type: 3}
  - {fileID: 21300000, guid: 9a238a14afcf8324b884d9ed1024372d, type: 3}
  - {fileID: 21300000, guid: d21e6124f1d908c49bbd4005cd2ab313, type: 3}
  - {fileID: 21300000, guid: 5b44a6346633f2d44a8ee2d50e1f16a8, type: 3}
  - {fileID: 21300000, guid: ac04c8445ea9aa547886fcde99acf880, type: 3}
  - {fileID: 21300000, guid: 1b6d266445cb60f40833a5ab3364e325, type: 3}
  - {fileID: 21300000, guid: 57978864477892f4f925fe9c7e101c94, type: 3}
  - {fileID: 21300000, guid: f4fc4c74186d922458885db6cdf8b308, type: 3}
  - {fileID: 21300000, guid: b64f6c74fcaa72c4c88c4382ae8670da, type: 3}
  - {fileID: 21300000, guid: 3af42394ffddc1244a030424cc7dc413, type: 3}
  - {fileID: 21300000, guid: e903cba4d1a1ab742bef4170ba98740c, type: 3}
  - {fileID: 21300000, guid: 998cfca4680b8d04aa7c3901739e1d38, type: 3}
  - {fileID: 21300000, guid: b4544ac4624f8184e95fed31b3ef9c0f, type: 3}
  - {fileID: 21300000, guid: 8144ecc48a534844c907639faaa190f9, type: 3}
  - {fileID: 21300000, guid: d5e0edc4cf82d1d45a34b1e59d356ebb, type: 3}
  - {fileID: 21300000, guid: 941cc5d4f050cd344be611e41c7c20d8, type: 3}
  - {fileID: 21300000, guid: e56cd115df4e8ea4494349dbb8f26519, type: 3}
  - {fileID: 21300000, guid: f04ff245dffe3294690718cb6cbf7041, type: 3}
  - {fileID: 21300000, guid: bafee665f2f78f24b8fbdc7965b0fdba, type: 3}
  - {fileID: 21300000, guid: e57e5b657ff10974aab2366c2c4cd500, type: 3}
  - {fileID: 21300000, guid: 2608d675d6e07bd48af216a029549605, type: 3}
  - {fileID: 21300000, guid: 99a3a095f8bc58c47b265cb53e12df37, type: 3}
  - {fileID: 21300000, guid: f8aec1a54ee4c6d4b8d696ab66a92337, type: 3}
  - {fileID: 21300000, guid: ff079cc58a6bc294d8e720bdb562c6d2, type: 3}
  - {fileID: 21300000, guid: 40b062f54001b624580c1b63c82f3b02, type: 3}
  - {fileID: 21300000, guid: ad78fd06ecc0aca46a75219873f29a5f, type: 3}
  - {fileID: 21300000, guid: c6db8216274053f4da03c6f94720a93d, type: 3}
  - {fileID: 21300000, guid: ee7a1b36949330b4a83aafa2c1e7ff90, type: 3}
  - {fileID: 21300000, guid: 4ef33d4634730614eaf60bfc96d280ff, type: 3}
  - {fileID: 21300000, guid: 02f406566aa7fc84da485b15afd0c916, type: 3}
  - {fileID: 21300000, guid: c2d25166560c3604c970132213ce5994, type: 3}
  - {fileID: 21300000, guid: e680ea66148402c4a877607ae65458cd, type: 3}
  - {fileID: 21300000, guid: 6ee18496bd397a543b248e0fcbc28e42, type: 3}
  - {fileID: 21300000, guid: a1ba9796ba268a347af7c0204dfe9603, type: 3}
  - {fileID: 21300000, guid: 844a59a6844a90b489b1c8578bd54ea6, type: 3}
  - {fileID: 21300000, guid: 2cd18ba661cbd574d8261edf4ba8f5d2, type: 3}
  - {fileID: 21300000, guid: a290a4b6a3577d1438bdda0d84a51f0e, type: 3}
  - {fileID: 21300000, guid: cfc3abb6592dfec4ab4593c783a924d9, type: 3}
  - {fileID: 21300000, guid: d24290d66ca82ce419fa237ee521368a, type: 3}
  - {fileID: 21300000, guid: 6c94dae638991f64799cb0d7e9688b81, type: 3}
  - {fileID: 21300000, guid: d0c26037bc50fd9429f3595340fc6129, type: 3}
  - {fileID: 21300000, guid: f530ec374eb854c469524964a9629124, type: 3}
  - {fileID: 21300000, guid: 42cba557d44f73d4487ff199dfc609d4, type: 3}
  - {fileID: 21300000, guid: 08371957fa5d37642aeba837511d5b27, type: 3}
  - {fileID: 21300000, guid: a8452477de81ddf48b3117e588cba123, type: 3}
  - {fileID: 21300000, guid: ff452587627222149a55e2a98dcc16ea, type: 3}
  - {fileID: 21300000, guid: aae03c87f16f2c9468a039ba89cea6b5, type: 3}
  - {fileID: 21300000, guid: 19b85aa7418bf9c4bbc3b03998b0968d, type: 3}
  - {fileID: 21300000, guid: 7b433ea7dbd35b445bcbfecb7746e2a9, type: 3}
  - {fileID: 21300000, guid: 4f8192b754e18e64fbbb6e5c271992f0, type: 3}
  - {fileID: 21300000, guid: 7168d6b7326ee734ead0e781b91ae328, type: 3}
  - {fileID: 21300000, guid: 06e1c10822c066f4588575a1bf4afc6e, type: 3}
  - {fileID: 21300000, guid: 33eeb62837cda9642b1b0be1c2c940ff, type: 3}
  - {fileID: 21300000, guid: 776600382d121594aa3ed800f68d9eda, type: 3}
  - {fileID: 21300000, guid: ada47238a6e7474419b2888ffb43ca43, type: 3}
  - {fileID: 21300000, guid: f3be4d38fcb41b34aa2fbff506ae9cb1, type: 3}
  - {fileID: 21300000, guid: 09d33858cc1195b46a4717053d944b93, type: 3}
  - {fileID: 21300000, guid: f32519589d441a448bcbbb3430fde1df, type: 3}
  - {fileID: 21300000, guid: 7f9f3588b89b8174a83d1d3f9ad1a9c8, type: 3}
  - {fileID: 21300000, guid: 6aab8a885f45b9f4b9bd5b0fc4fb8d54, type: 3}
  - {fileID: 21300000, guid: 156d3ac8892d5bb4e87d0dcd6d48e00d, type: 3}
  - {fileID: 21300000, guid: 7f10cf096b919c34f8fab8d1632159d2, type: 3}
  - {fileID: 21300000, guid: b78f351946a0a7a44b72f88d33b865d9, type: 3}
  - {fileID: 21300000, guid: 5dc36a19eb2d0874aba7b2c40d425de5, type: 3}
  - {fileID: 21300000, guid: 3954a359ef472dd48a2df1945074ab66, type: 3}
  - {fileID: 21300000, guid: 1fd4095956834614eac4b40983c317de, type: 3}
  - {fileID: 21300000, guid: 2e881c69adee77a40aa458b8bde69877, type: 3}
  - {fileID: 21300000, guid: 64101579f8adaa840b2fdd5bb46a592d, type: 3}
  - {fileID: 21300000, guid: 0fcac789d02cf7c4597de1d92449a679, type: 3}
  - {fileID: 21300000, guid: e9f0d299568d60343a814350a6e31fc7, type: 3}
  - {fileID: 21300000, guid: 565a61a961f9653439406c0bcc55d453, type: 3}
  - {fileID: 21300000, guid: 295855e93fdd59042a36b7d1a20c5c7a, type: 3}
  - {fileID: 21300000, guid: eddbfee964f3e664e84391b43dfbc362, type: 3}
  - {fileID: 21300000, guid: 12ca1df9c88171c41b03c8cc5e2f1a39, type: 3}
  - {fileID: 21300000, guid: cf74c70ac3543bb48a548151efcae1d5, type: 3}
  - {fileID: 21300000, guid: 046bf43a10ddf3245aa39b7cb8b213cf, type: 3}
  - {fileID: 21300000, guid: 5e13493a77b71db4a90370c69efb1591, type: 3}
  - {fileID: 21300000, guid: 36bb034a0d4c6424ea05c0919f1866ca, type: 3}
  - {fileID: 21300000, guid: 80265b4adb64da648a77bb99882821fa, type: 3}
  - {fileID: 21300000, guid: 74e45d4a3ad389044a09791cd9f6575a, type: 3}
  - {fileID: 21300000, guid: ea2e065a1261f8f41b7cf59428b542ab, type: 3}
  - {fileID: 21300000, guid: f8e5a68aae7881645811ad1d4fe60ada, type: 3}
  - {fileID: 21300000, guid: c2f58e9ada4323741887a9a1b6ac641c, type: 3}
  - {fileID: 21300000, guid: 32e10f9a5b40b59459fc297f0d88c7a9, type: 3}
  - {fileID: 21300000, guid: 8bb56f9a369f8024283054d0fab3963c, type: 3}
  - {fileID: 21300000, guid: 946b10aafbd5d7045ac2a39dc3910273, type: 3}
  - {fileID: 21300000, guid: 4b3384bae2b5bd04baa0702be6272867, type: 3}
  - {fileID: 21300000, guid: 5a2c9bcabdc0e4a4a940a3fc3ff2da71, type: 3}
  - {fileID: 21300000, guid: f77a35dafd134b9409ecd8f15d6a2ce6, type: 3}
  - {fileID: 21300000, guid: c6f1030bb3819ac4f950dedcf4bc5c45, type: 3}
  - {fileID: 21300000, guid: 8ad0f54b49295ea4b8ae973dbf42f70e, type: 3}
  - {fileID: 21300000, guid: 40ad1e4bda9db2c4092a1a920f6439f9, type: 3}
  - {fileID: 21300000, guid: e494805bb5047e14ab4b85bacc743f1e, type: 3}
  - {fileID: 21300000, guid: f3a92d7b52df7f642b4beaa90d410a0d, type: 3}
  - {fileID: 21300000, guid: 8957d5ab7f784d14f9992bfca58b97f1, type: 3}
  - {fileID: 21300000, guid: 4a2928cb083e53b48b55920d4b74b854, type: 3}
  - {fileID: 21300000, guid: 04f979cb4e1850c43823e955834f2cb8, type: 3}
  - {fileID: 21300000, guid: 016d5dcbe889a224cad486cc80e826bc, type: 3}
  - {fileID: 21300000, guid: 35f28feb23a63794d8ba175017fb85a7, type: 3}
  - {fileID: 21300000, guid: 5b6c611cfc79ee143b63ae5ccba5bb00, type: 3}
  - {fileID: 21300000, guid: b569622c543abc64286a6207f822d722, type: 3}
  - {fileID: 21300000, guid: b2c2043cd1d57bd449f2759a32b211e4, type: 3}
  - {fileID: 21300000, guid: d2b56f6c6edb7db4f8ef4c22ede4c4b1, type: 3}
  - {fileID: 21300000, guid: 9cc5a47ce134f9b4b93203da74ca6d65, type: 3}
  - {fileID: 21300000, guid: ff29767c52ca24b4999f92f9f73ff17d, type: 3}
  - {fileID: 21300000, guid: c11ed18cbf2a2ef4cbe83ff170743fba, type: 3}
  - {fileID: 21300000, guid: 740c7b8cf5a04324e87f6ee27140e2ac, type: 3}
  - {fileID: 21300000, guid: ee256e8cc40da6e4b8445e6be17acd62, type: 3}
  - {fileID: 21300000, guid: 2403419c5341d444699b38c8cbbc8bd1, type: 3}
  - {fileID: 21300000, guid: 3955a19cb69f55848b5106127f9a4130, type: 3}
  - {fileID: 21300000, guid: b2ba3c9cf20bff9438aad5ec34fa49dc, type: 3}
  - {fileID: 21300000, guid: 4c21a2cc505549b46ac6832bae7a3ee4, type: 3}
  - {fileID: 21300000, guid: 926a95ccbd85fd645a80756d49f2b7bd, type: 3}
  - {fileID: 21300000, guid: f0e869cc707abd147828b3b888356cb8, type: 3}
  - {fileID: 21300000, guid: 942a54dc79efba248a55504cbaa2dbdb, type: 3}
  - {fileID: 21300000, guid: afc9e1ec361e0db4c94b92e338b9e35f, type: 3}
  - {fileID: 21300000, guid: 576eb0fcc693e24409700e73df9f3df9, type: 3}
  - {fileID: 21300000, guid: 7f8095fc04bef6e4783dbd5f2bbd858a, type: 3}
  - {fileID: 21300000, guid: 280fbbfcda0e18f49a7b5221e48373cc, type: 3}
  - {fileID: 21300000, guid: 0959fbfc450ff5d4e950610000823d0a, type: 3}
  - {fileID: 21300000, guid: 8af9db0d7dda35d458cb3aca6b02cb97, type: 3}
  - {fileID: 21300000, guid: c244ae0dbf3e6714e825d6a359246ee5, type: 3}
  - {fileID: 21300000, guid: e3ac151d46022bc4e916dddad790cf9b, type: 3}
  - {fileID: 21300000, guid: c6db632df22f09842b07bf874b2f3c78, type: 3}
  - {fileID: 21300000, guid: 7641682d7a3ab0b4580d2ecabb58d9bd, type: 3}
  - {fileID: 21300000, guid: bbf5684dba686a14296f9277857c52bd, type: 3}
  - {fileID: 21300000, guid: 48c1976d6e185004b9d404d1c7493af4, type: 3}
  - {fileID: 21300000, guid: cb38d96d4ce7af1499b42de063637d96, type: 3}
  - {fileID: 21300000, guid: b145227daa2c6a849895ff13d23efb6d, type: 3}
  - {fileID: 21300000, guid: a6f5b6adeada1d8438f9974c9991f4fc, type: 3}
  - {fileID: 21300000, guid: bcde8fbdaa43a8349b5d8b2d5a06eeef, type: 3}
  - {fileID: 21300000, guid: 9d160cdd7e6e23844a8c6651ceb12e0b, type: 3}
  - {fileID: 21300000, guid: d9c175ed782728a48858c3c4503c6ca2, type: 3}
  - {fileID: 21300000, guid: a019d8fdbb2ae1843920bc733b654f16, type: 3}
  - {fileID: 21300000, guid: bfc9150e6dea2f748bdd31d27e48e06d, type: 3}
  - {fileID: 21300000, guid: fce0f70ebb9cf5c4ca6eb88ddd826bfa, type: 3}
  - {fileID: 21300000, guid: 41e98a1e3d7e4754aa62b52663c4651b, type: 3}
  - {fileID: 21300000, guid: 117dc36e9777ee14a92efa44fab4503a, type: 3}
  - {fileID: 21300000, guid: 8896668e360c2d54186d1ea3213a6085, type: 3}
  - {fileID: 21300000, guid: 195f198ef6d6bc046bf4db1a34ed0a6c, type: 3}
  - {fileID: 21300000, guid: 379a2fce5bc3e7848b3064d37ffb171e, type: 3}
  - {fileID: 21300000, guid: 9f2f19de5a162234fb27eed9ac4c7179, type: 3}
  - {fileID: 21300000, guid: e921b7feb71750a4a9e30964a2b701b8, type: 3}
  - {fileID: 21300000, guid: aac7732fb1823b149acbee043c457e8f, type: 3}
  - {fileID: 21300000, guid: 47c3c32f8d4d0c6418bd800377485634, type: 3}
  - {fileID: 21300000, guid: 479a565f94fe53b458a8c685dac8f243, type: 3}
  - {fileID: 21300000, guid: 2065e06fce97f48429039b8ffe9425f1, type: 3}
  - {fileID: 21300000, guid: 6e3d516fb6df49e4d9492ca939043bfe, type: 3}
  - {fileID: 21300000, guid: 0e16087f373eabd4db32254d8b3f6058, type: 3}
  - {fileID: 21300000, guid: cbf7897f5347d5146870393799b0ee54, type: 3}
  - {fileID: 21300000, guid: 2bcbddaf503ab5d43905c30990775dbe, type: 3}
  - {fileID: 21300000, guid: 72971fbf96e1a4f42bce7d92ea36948d, type: 3}
  - {fileID: 21300000, guid: 9190c2df3b425c14fbddb98fc177e5a9, type: 3}
  m_PackedSpriteNamesToIndex:
  - FlatIcon_178
  - FlatIcon_164
  - FlatIcon_134
  - FlatIcon_114
  - FlatIcon_53
  - FlatIcon_133
  - FlatIcon_181
  - FlatIcon_131
  - FlatIcon_124
  - FlatIcon_191
  - FlatIcon_6
  - FlatIcon_193
  - FlatIcon_155
  - FlatIcon_115
  - FlatIcon_82
  - FlatIcon_185
  - FlatIcon_92
  - FlatIcon_28
  - FlatIcon_45
  - FlatIcon_187
  - FlatIcon_40
  - FlatIcon_23
  - FlatIcon_145
  - FlatIcon_123
  - FlatIcon_128
  - FlatIcon_103
  - FlatIcon_43
  - FlatIcon_54
  - FlatIcon_52
  - FlatIcon_91
  - FlatIcon_73
  - FlatIcon_41
  - FlatIcon_72
  - FlatIcon_99
  - FlatIcon_136
  - FlatIcon_113
  - FlatIcon_150
  - FlatIcon_80
  - FlatIcon_182
  - FlatIcon_60
  - FlatIcon_149
  - FlatIcon_148
  - FlatIcon_192
  - FlatIcon_158
  - FlatIcon_106
  - FlatIcon_64
  - FlatIcon_189
  - FlatIcon_75
  - FlatIcon_37
  - FlatIcon_135
  - FlatIcon_89
  - FlatIcon_10
  - FlatIcon_127
  - FlatIcon_14
  - FlatIcon_30
  - FlatIcon_151
  - FlatIcon_50
  - FlatIcon_70
  - FlatIcon_42
  - FlatIcon_46
  - FlatIcon_170
  - FlatIcon_29
  - FlatIcon_104
  - FlatIcon_172
  - FlatIcon_9
  - FlatIcon_48
  - FlatIcon_167
  - FlatIcon_112
  - FlatIcon_117
  - FlatIcon_3
  - FlatIcon_51
  - FlatIcon_44
  - FlatIcon_8
  - FlatIcon_94
  - FlatIcon_147
  - FlatIcon_35
  - FlatIcon_38
  - FlatIcon_20
  - FlatIcon_39
  - FlatIcon_21
  - FlatIcon_169
  - FlatIcon_15
  - FlatIcon_56
  - FlatIcon_58
  - FlatIcon_109
  - FlatIcon_152
  - FlatIcon_126
  - FlatIcon_95
  - FlatIcon_101
  - FlatIcon_118
  - FlatIcon_163
  - FlatIcon_188
  - FlatIcon_157
  - FlatIcon_119
  - FlatIcon_67
  - FlatIcon_7
  - FlatIcon_57
  - FlatIcon_86
  - FlatIcon_165
  - FlatIcon_175
  - FlatIcon_27
  - FlatIcon_110
  - FlatIcon_122
  - FlatIcon_76
  - FlatIcon_186
  - FlatIcon_81
  - FlatIcon_198
  - FlatIcon_77
  - FlatIcon_26
  - FlatIcon_13
  - FlatIcon_98
  - FlatIcon_129
  - FlatIcon_121
  - FlatIcon_78
  - FlatIcon_159
  - FlatIcon_31
  - FlatIcon_184
  - FlatIcon_17
  - FlatIcon_19
  - FlatIcon_143
  - FlatIcon_71
  - FlatIcon_116
  - FlatIcon_59
  - FlatIcon_47
  - FlatIcon_111
  - FlatIcon_166
  - FlatIcon_161
  - FlatIcon_195
  - FlatIcon_162
  - FlatIcon_2
  - FlatIcon_18
  - FlatIcon_36
  - FlatIcon_176
  - FlatIcon_180
  - FlatIcon_107
  - FlatIcon_65
  - FlatIcon_1
  - FlatIcon_61
  - FlatIcon_160
  - FlatIcon_69
  - FlatIcon_88
  - FlatIcon_32
  - FlatIcon_5
  - FlatIcon_200
  - FlatIcon_33
  - FlatIcon_97
  - FlatIcon_16
  - FlatIcon_87
  - FlatIcon_74
  - FlatIcon_137
  - FlatIcon_168
  - FlatIcon_96
  - FlatIcon_130
  - FlatIcon_22
  - FlatIcon_197
  - FlatIcon_173
  - FlatIcon_55
  - FlatIcon_183
  - FlatIcon_83
  - FlatIcon_90
  - FlatIcon_156
  - FlatIcon_68
  - FlatIcon_132
  - FlatIcon_34
  - FlatIcon_102
  - FlatIcon_190
  - FlatIcon_66
  - FlatIcon_105
  - FlatIcon_196
  - FlatIcon_49
  - FlatIcon_12
  - FlatIcon_85
  - FlatIcon_24
  - FlatIcon_146
  - FlatIcon_11
  - FlatIcon_153
  - FlatIcon_142
  - FlatIcon_194
  - FlatIcon_63
  - FlatIcon_174
  - FlatIcon_144
  - FlatIcon_141
  - FlatIcon_125
  - FlatIcon_199
  - FlatIcon_84
  - FlatIcon_120
  - FlatIcon_179
  - FlatIcon_108
  - FlatIcon_62
  - FlatIcon_154
  - FlatIcon_140
  - FlatIcon_79
  - FlatIcon_100
  - FlatIcon_138
  - FlatIcon_177
  - FlatIcon_4
  - FlatIcon_171
  - FlatIcon_139
  - FlatIcon_93
  - FlatIcon_25
  m_Tag: FlatConsBG
  m_IsVariant: 0
