%YAML 1.1
%TAG !u! tag:unity3d.com,2011:
--- !u!1 &5785857904637283570
GameObject:
  m_ObjectHideFlags: 0
  m_CorrespondingSourceObject: {fileID: 0}
  m_PrefabInstance: {fileID: 0}
  m_PrefabAsset: {fileID: 0}
  serializedVersion: 6
  m_Component:
  - component: {fileID: 539400061669939228}
  m_Layer: 0
  m_Name: HasteTrail
  m_TagString: Untagged
  m_Icon: {fileID: 0}
  m_NavMeshLayer: 0
  m_StaticEditorFlags: 0
  m_IsActive: 1
--- !u!4 &539400061669939228
Transform:
  m_ObjectHideFlags: 0
  m_CorrespondingSourceObject: {fileID: 0}
  m_PrefabInstance: {fileID: 0}
  m_PrefabAsset: {fileID: 0}
  m_GameObject: {fileID: 5785857904637283570}
  m_LocalRotation: {x: 0, y: 0, z: 0, w: 1}
  m_LocalPosition: {x: 0, y: 0, z: 0}
  m_LocalScale: {x: 1, y: 1, z: 1}
  m_Children:
  - {fileID: 8420638250763534192}
  - {fileID: 1146777175161511197}
  m_Father: {fileID: 0}
  m_RootOrder: 0
  m_LocalEulerAnglesHint: {x: 0, y: 0, z: 0}
--- !u!1001 &3766907296320181400
PrefabInstance:
  m_ObjectHideFlags: 0
  serializedVersion: 2
  m_Modification:
    m_TransformParent: {fileID: 539400061669939228}
    m_Modifications:
    - target: {fileID: 4299976643880601988, guid: 37d1878e5a03c7e45b2123902e344102,
        type: 3}
      propertyPath: m_Name
      value: Particle System (2)
      objectReference: {fileID: 0}
    - target: {fileID: 4299976643880601989, guid: 37d1878e5a03c7e45b2123902e344102,
        type: 3}
      propertyPath: m_LocalPosition.x
      value: 0.43
      objectReference: {fileID: 0}
    - target: {fileID: 4299976643880601989, guid: 37d1878e5a03c7e45b2123902e344102,
        type: 3}
      propertyPath: m_LocalPosition.y
      value: 0
      objectReference: {fileID: 0}
    - target: {fileID: 4299976643880601989, guid: 37d1878e5a03c7e45b2123902e344102,
        type: 3}
      propertyPath: m_LocalPosition.z
      value: -0.47
      objectReference: {fileID: 0}
    - target: {fileID: 4299976643880601989, guid: 37d1878e5a03c7e45b2123902e344102,
        type: 3}
      propertyPath: m_LocalRotation.x
      value: -0
      objectReference: {fileID: 0}
    - target: {fileID: 4299976643880601989, guid: 37d1878e5a03c7e45b2123902e344102,
        type: 3}
      propertyPath: m_LocalRotation.y
      value: -0
      objectReference: {fileID: 0}
    - target: {fileID: 4299976643880601989, guid: 37d1878e5a03c7e45b2123902e344102,
        type: 3}
      propertyPath: m_LocalRotation.z
      value: -0
      objectReference: {fileID: 0}
    - target: {fileID: 4299976643880601989, guid: 37d1878e5a03c7e45b2123902e344102,
        type: 3}
      propertyPath: m_LocalRotation.w
      value: 1
      objectReference: {fileID: 0}
    - target: {fileID: 4299976643880601989, guid: 37d1878e5a03c7e45b2123902e344102,
        type: 3}
      propertyPath: m_RootOrder
      value: 1
      objectReference: {fileID: 0}
    - target: {fileID: 4299976643880601989, guid: 37d1878e5a03c7e45b2123902e344102,
        type: 3}
      propertyPath: m_LocalEulerAnglesHint.x
      value: -90
      objectReference: {fileID: 0}
    - target: {fileID: 4299976643880601989, guid: 37d1878e5a03c7e45b2123902e344102,
        type: 3}
      propertyPath: m_LocalEulerAnglesHint.y
      value: 0
      objectReference: {fileID: 0}
    - target: {fileID: 4299976643880601989, guid: 37d1878e5a03c7e45b2123902e344102,
        type: 3}
      propertyPath: m_LocalEulerAnglesHint.z
      value: 0
      objectReference: {fileID: 0}
    - target: {fileID: 4299976643880601989, guid: 37d1878e5a03c7e45b2123902e344102,
        type: 3}
      propertyPath: m_LocalScale.y
      value: 3
      objectReference: {fileID: 0}
    - target: {fileID: 4299976643880601991, guid: 37d1878e5a03c7e45b2123902e344102,
        type: 3}
      propertyPath: InitialModule.size3D
      value: 1
      objectReference: {fileID: 0}
    - target: {fileID: 4299976643880601991, guid: 37d1878e5a03c7e45b2123902e344102,
        type: 3}
      propertyPath: ColorModule.gradient.maxGradient.atime1
      value: 28142
      objectReference: {fileID: 0}
    - target: {fileID: 4299976643880601991, guid: 37d1878e5a03c7e45b2123902e344102,
        type: 3}
      propertyPath: ColorModule.gradient.maxGradient.key0.r
      value: 0.745283
      objectReference: {fileID: 0}
    - target: {fileID: 4299976643880601991, guid: 37d1878e5a03c7e45b2123902e344102,
        type: 3}
      propertyPath: ColorModule.gradient.maxGradient.key0.g
      value: 0.08584704
      objectReference: {fileID: 0}
    - target: {fileID: 4299976643880601991, guid: 37d1878e5a03c7e45b2123902e344102,
        type: 3}
      propertyPath: ColorModule.gradient.maxGradient.key0.b
      value: 0
      objectReference: {fileID: 0}
    - target: {fileID: 4299976643880601991, guid: 37d1878e5a03c7e45b2123902e344102,
        type: 3}
      propertyPath: ColorModule.gradient.maxGradient.key1.g
      value: 0.78233033
      objectReference: {fileID: 0}
    - target: {fileID: 4299976643880601991, guid: 37d1878e5a03c7e45b2123902e344102,
        type: 3}
      propertyPath: ColorModule.gradient.maxGradient.key1.b
      value: 0.07075471
      objectReference: {fileID: 0}
    - target: {fileID: 4299976643880601991, guid: 37d1878e5a03c7e45b2123902e344102,
        type: 3}
      propertyPath: ColorModule.gradient.maxGradient.key2.r
      value: 1
      objectReference: {fileID: 0}
    - target: {fileID: 4299976643880601991, guid: 37d1878e5a03c7e45b2123902e344102,
        type: 3}
      propertyPath: ColorModule.gradient.maxGradient.key2.g
      value: 1
      objectReference: {fileID: 0}
    - target: {fileID: 4299976643880601991, guid: 37d1878e5a03c7e45b2123902e344102,
        type: 3}
      propertyPath: ColorModule.gradient.maxGradient.key2.b
      value: 1
      objectReference: {fileID: 0}
    - target: {fileID: 4299976643880601991, guid: 37d1878e5a03c7e45b2123902e344102,
        type: 3}
      propertyPath: ColorModule.gradient.maxGradient.ctime1
      value: 44911
      objectReference: {fileID: 0}
    - target: {fileID: 4299976643880601991, guid: 37d1878e5a03c7e45b2123902e344102,
        type: 3}
      propertyPath: ColorModule.gradient.maxGradient.ctime2
      value: 65535
      objectReference: {fileID: 0}
    - target: {fileID: 4299976643880601991, guid: 37d1878e5a03c7e45b2123902e344102,
        type: 3}
      propertyPath: ColorModule.gradient.maxGradient.m_NumColorKeys
      value: 3
      objectReference: {fileID: 0}
    - target: {fileID: 4299976643880601991, guid: 37d1878e5a03c7e45b2123902e344102,
        type: 3}
      propertyPath: ColorModule.gradient.maxGradient.key1.r
      value: 1
      objectReference: {fileID: 0}
    - target: {fileID: 4299976643880601991, guid: 37d1878e5a03c7e45b2123902e344102,
        type: 3}
      propertyPath: SizeModule.enabled
      value: 1
      objectReference: {fileID: 0}
    - target: {fileID: 4299976643880601991, guid: 37d1878e5a03c7e45b2123902e344102,
        type: 3}
      propertyPath: SizeModule.curve.maxCurve.m_Curve.Array.data[0].value
      value: 1
      objectReference: {fileID: 0}
    - target: {fileID: 4299976643880601991, guid: 37d1878e5a03c7e45b2123902e344102,
        type: 3}
      propertyPath: SizeModule.curve.maxCurve.m_Curve.Array.data[0].outSlope
      value: 0
      objectReference: {fileID: 0}
    - target: {fileID: 4299976643880601991, guid: 37d1878e5a03c7e45b2123902e344102,
        type: 3}
      propertyPath: SizeModule.curve.maxCurve.m_Curve.Array.data[1].outSlope
      value: -2
      objectReference: {fileID: 0}
    - target: {fileID: 4299976643880601991, guid: 37d1878e5a03c7e45b2123902e344102,
        type: 3}
      propertyPath: SizeModule.curve.maxCurve.m_Curve.Array.data[0].time
      value: 0
      objectReference: {fileID: 0}
    - target: {fileID: 4299976643880601991, guid: 37d1878e5a03c7e45b2123902e344102,
        type: 3}
      propertyPath: SizeModule.curve.maxCurve.m_Curve.Array.data[0].inWeight
      value: 0
      objectReference: {fileID: 0}
    - target: {fileID: 4299976643880601991, guid: 37d1878e5a03c7e45b2123902e344102,
        type: 3}
      propertyPath: SizeModule.curve.maxCurve.m_Curve.Array.data[0].outWeight
      value: 0
      objectReference: {fileID: 0}
    - target: {fileID: 4299976643880601991, guid: 37d1878e5a03c7e45b2123902e344102,
        type: 3}
      propertyPath: SizeModule.curve.maxCurve.m_Curve.Array.data[1].value
      value: 0
      objectReference: {fileID: 0}
    - target: {fileID: 4299976643880601991, guid: 37d1878e5a03c7e45b2123902e344102,
        type: 3}
      propertyPath: SizeModule.curve.maxCurve.m_Curve.Array.data[1].inSlope
      value: -2
      objectReference: {fileID: 0}
    - target: {fileID: 4299976643880601991, guid: 37d1878e5a03c7e45b2123902e344102,
        type: 3}
      propertyPath: SizeModule.curve.maxCurve.m_Curve.Array.data[1].inWeight
      value: 0
      objectReference: {fileID: 0}
    - target: {fileID: 4299976643880601991, guid: 37d1878e5a03c7e45b2123902e344102,
        type: 3}
      propertyPath: SizeModule.curve.maxCurve.m_Curve.Array.data[1].outWeight
      value: 0
      objectReference: {fileID: 0}
    - target: {fileID: 4299976643880601991, guid: 37d1878e5a03c7e45b2123902e344102,
        type: 3}
      propertyPath: InitialModule.startLifetime.scalar
      value: 1
      objectReference: {fileID: 0}
    m_RemovedComponents: []
  m_SourcePrefab: {fileID: 100100000, guid: 37d1878e5a03c7e45b2123902e344102, type: 3}
--- !u!4 &1146777175161511197 stripped
Transform:
  m_CorrespondingSourceObject: {fileID: 4299976643880601989, guid: 37d1878e5a03c7e45b2123902e344102,
    type: 3}
  m_PrefabInstance: {fileID: 3766907296320181400}
  m_PrefabAsset: {fileID: 0}
--- !u!1001 &5724224824623593205
PrefabInstance:
  m_ObjectHideFlags: 0
  serializedVersion: 2
  m_Modification:
    m_TransformParent: {fileID: 539400061669939228}
    m_Modifications:
    - target: {fileID: 4299976643880601988, guid: 37d1878e5a03c7e45b2123902e344102,
        type: 3}
      propertyPath: m_Name
      value: Particle System (1)
      objectReference: {fileID: 0}
    - target: {fileID: 4299976643880601989, guid: 37d1878e5a03c7e45b2123902e344102,
        type: 3}
      propertyPath: m_LocalPosition.x
      value: -0.43
      objectReference: {fileID: 0}
    - target: {fileID: 4299976643880601989, guid: 37d1878e5a03c7e45b2123902e344102,
        type: 3}
      propertyPath: m_LocalPosition.y
      value: 0
      objectReference: {fileID: 0}
    - target: {fileID: 4299976643880601989, guid: 37d1878e5a03c7e45b2123902e344102,
        type: 3}
      propertyPath: m_LocalPosition.z
      value: -0.47
      objectReference: {fileID: 0}
    - target: {fileID: 4299976643880601989, guid: 37d1878e5a03c7e45b2123902e344102,
        type: 3}
      propertyPath: m_LocalRotation.x
      value: -0
      objectReference: {fileID: 0}
    - target: {fileID: 4299976643880601989, guid: 37d1878e5a03c7e45b2123902e344102,
        type: 3}
      propertyPath: m_LocalRotation.y
      value: -0
      objectReference: {fileID: 0}
    - target: {fileID: 4299976643880601989, guid: 37d1878e5a03c7e45b2123902e344102,
        type: 3}
      propertyPath: m_LocalRotation.z
      value: -0
      objectReference: {fileID: 0}
    - target: {fileID: 4299976643880601989, guid: 37d1878e5a03c7e45b2123902e344102,
        type: 3}
      propertyPath: m_LocalRotation.w
      value: 1
      objectReference: {fileID: 0}
    - target: {fileID: 4299976643880601989, guid: 37d1878e5a03c7e45b2123902e344102,
        type: 3}
      propertyPath: m_RootOrder
      value: 0
      objectReference: {fileID: 0}
    - target: {fileID: 4299976643880601989, guid: 37d1878e5a03c7e45b2123902e344102,
        type: 3}
      propertyPath: m_LocalEulerAnglesHint.x
      value: -90
      objectReference: {fileID: 0}
    - target: {fileID: 4299976643880601989, guid: 37d1878e5a03c7e45b2123902e344102,
        type: 3}
      propertyPath: m_LocalEulerAnglesHint.y
      value: 0
      objectReference: {fileID: 0}
    - target: {fileID: 4299976643880601989, guid: 37d1878e5a03c7e45b2123902e344102,
        type: 3}
      propertyPath: m_LocalEulerAnglesHint.z
      value: 0
      objectReference: {fileID: 0}
    - target: {fileID: 4299976643880601989, guid: 37d1878e5a03c7e45b2123902e344102,
        type: 3}
      propertyPath: m_LocalScale.y
      value: 3
      objectReference: {fileID: 0}
    - target: {fileID: 4299976643880601991, guid: 37d1878e5a03c7e45b2123902e344102,
        type: 3}
      propertyPath: InitialModule.size3D
      value: 1
      objectReference: {fileID: 0}
    - target: {fileID: 4299976643880601991, guid: 37d1878e5a03c7e45b2123902e344102,
        type: 3}
      propertyPath: ColorModule.gradient.maxGradient.atime1
      value: 28142
      objectReference: {fileID: 0}
    - target: {fileID: 4299976643880601991, guid: 37d1878e5a03c7e45b2123902e344102,
        type: 3}
      propertyPath: ColorModule.gradient.maxGradient.key0.r
      value: 0.745283
      objectReference: {fileID: 0}
    - target: {fileID: 4299976643880601991, guid: 37d1878e5a03c7e45b2123902e344102,
        type: 3}
      propertyPath: ColorModule.gradient.maxGradient.key0.g
      value: 0.08584704
      objectReference: {fileID: 0}
    - target: {fileID: 4299976643880601991, guid: 37d1878e5a03c7e45b2123902e344102,
        type: 3}
      propertyPath: ColorModule.gradient.maxGradient.key0.b
      value: 0
      objectReference: {fileID: 0}
    - target: {fileID: 4299976643880601991, guid: 37d1878e5a03c7e45b2123902e344102,
        type: 3}
      propertyPath: ColorModule.gradient.maxGradient.key1.g
      value: 0.78233033
      objectReference: {fileID: 0}
    - target: {fileID: 4299976643880601991, guid: 37d1878e5a03c7e45b2123902e344102,
        type: 3}
      propertyPath: ColorModule.gradient.maxGradient.key1.b
      value: 0.07075471
      objectReference: {fileID: 0}
    - target: {fileID: 4299976643880601991, guid: 37d1878e5a03c7e45b2123902e344102,
        type: 3}
      propertyPath: ColorModule.gradient.maxGradient.key2.r
      value: 1
      objectReference: {fileID: 0}
    - target: {fileID: 4299976643880601991, guid: 37d1878e5a03c7e45b2123902e344102,
        type: 3}
      propertyPath: ColorModule.gradient.maxGradient.key2.g
      value: 1
      objectReference: {fileID: 0}
    - target: {fileID: 4299976643880601991, guid: 37d1878e5a03c7e45b2123902e344102,
        type: 3}
      propertyPath: ColorModule.gradient.maxGradient.key2.b
      value: 1
      objectReference: {fileID: 0}
    - target: {fileID: 4299976643880601991, guid: 37d1878e5a03c7e45b2123902e344102,
        type: 3}
      propertyPath: ColorModule.gradient.maxGradient.ctime1
      value: 44911
      objectReference: {fileID: 0}
    - target: {fileID: 4299976643880601991, guid: 37d1878e5a03c7e45b2123902e344102,
        type: 3}
      propertyPath: ColorModule.gradient.maxGradient.ctime2
      value: 65535
      objectReference: {fileID: 0}
    - target: {fileID: 4299976643880601991, guid: 37d1878e5a03c7e45b2123902e344102,
        type: 3}
      propertyPath: ColorModule.gradient.maxGradient.m_NumColorKeys
      value: 3
      objectReference: {fileID: 0}
    - target: {fileID: 4299976643880601991, guid: 37d1878e5a03c7e45b2123902e344102,
        type: 3}
      propertyPath: ColorModule.gradient.maxGradient.key1.r
      value: 1
      objectReference: {fileID: 0}
    - target: {fileID: 4299976643880601991, guid: 37d1878e5a03c7e45b2123902e344102,
        type: 3}
      propertyPath: SizeModule.enabled
      value: 1
      objectReference: {fileID: 0}
    - target: {fileID: 4299976643880601991, guid: 37d1878e5a03c7e45b2123902e344102,
        type: 3}
      propertyPath: SizeModule.curve.maxCurve.m_Curve.Array.data[0].value
      value: 1
      objectReference: {fileID: 0}
    - target: {fileID: 4299976643880601991, guid: 37d1878e5a03c7e45b2123902e344102,
        type: 3}
      propertyPath: SizeModule.curve.maxCurve.m_Curve.Array.data[0].outSlope
      value: 0
      objectReference: {fileID: 0}
    - target: {fileID: 4299976643880601991, guid: 37d1878e5a03c7e45b2123902e344102,
        type: 3}
      propertyPath: SizeModule.curve.maxCurve.m_Curve.Array.data[1].outSlope
      value: -2
      objectReference: {fileID: 0}
    - target: {fileID: 4299976643880601991, guid: 37d1878e5a03c7e45b2123902e344102,
        type: 3}
      propertyPath: SizeModule.curve.maxCurve.m_Curve.Array.data[0].time
      value: 0
      objectReference: {fileID: 0}
    - target: {fileID: 4299976643880601991, guid: 37d1878e5a03c7e45b2123902e344102,
        type: 3}
      propertyPath: SizeModule.curve.maxCurve.m_Curve.Array.data[0].inWeight
      value: 0
      objectReference: {fileID: 0}
    - target: {fileID: 4299976643880601991, guid: 37d1878e5a03c7e45b2123902e344102,
        type: 3}
      propertyPath: SizeModule.curve.maxCurve.m_Curve.Array.data[0].outWeight
      value: 0
      objectReference: {fileID: 0}
    - target: {fileID: 4299976643880601991, guid: 37d1878e5a03c7e45b2123902e344102,
        type: 3}
      propertyPath: SizeModule.curve.maxCurve.m_Curve.Array.data[1].value
      value: 0
      objectReference: {fileID: 0}
    - target: {fileID: 4299976643880601991, guid: 37d1878e5a03c7e45b2123902e344102,
        type: 3}
      propertyPath: SizeModule.curve.maxCurve.m_Curve.Array.data[1].inSlope
      value: -2
      objectReference: {fileID: 0}
    - target: {fileID: 4299976643880601991, guid: 37d1878e5a03c7e45b2123902e344102,
        type: 3}
      propertyPath: SizeModule.curve.maxCurve.m_Curve.Array.data[1].inWeight
      value: 0
      objectReference: {fileID: 0}
    - target: {fileID: 4299976643880601991, guid: 37d1878e5a03c7e45b2123902e344102,
        type: 3}
      propertyPath: SizeModule.curve.maxCurve.m_Curve.Array.data[1].outWeight
      value: 0
      objectReference: {fileID: 0}
    - target: {fileID: 4299976643880601991, guid: 37d1878e5a03c7e45b2123902e344102,
        type: 3}
      propertyPath: InitialModule.startLifetime.scalar
      value: 1
      objectReference: {fileID: 0}
    m_RemovedComponents: []
  m_SourcePrefab: {fileID: 100100000, guid: 37d1878e5a03c7e45b2123902e344102, type: 3}
--- !u!4 &8420638250763534192 stripped
Transform:
  m_CorrespondingSourceObject: {fileID: 4299976643880601989, guid: 37d1878e5a03c7e45b2123902e344102,
    type: 3}
  m_PrefabInstance: {fileID: 5724224824623593205}
  m_PrefabAsset: {fileID: 0}
