%YAML 1.1
%TAG !u! tag:unity3d.com,2011:
--- !u!1001 &3671441965965518162
PrefabInstance:
  m_ObjectHideFlags: 0
  serializedVersion: 2
  m_Modification:
    m_TransformParent: {fileID: 0}
    m_Modifications:
    - target: {fileID: 2707371617930276133, guid: 683e15818464c3c45ac66f8838be71ee,
        type: 3}
      propertyPath: m_Name
      value: RaeShtandart Variant
      objectReference: {fileID: 0}
    - target: {fileID: 2707371617930276137, guid: 683e15818464c3c45ac66f8838be71ee,
        type: 3}
      propertyPath: m_LocalPosition.x
      value: 5.9
      objectReference: {fileID: 0}
    - target: {fileID: 2707371617930276137, guid: 683e15818464c3c45ac66f8838be71ee,
        type: 3}
      propertyPath: m_LocalPosition.y
      value: 0
      objectReference: {fileID: 0}
    - target: {fileID: 2707371617930276137, guid: 683e15818464c3c45ac66f8838be71ee,
        type: 3}
      propertyPath: m_LocalPosition.z
      value: -11.7
      objectReference: {fileID: 0}
    - target: {fileID: 2707371617930276137, guid: 683e15818464c3c45ac66f8838be71ee,
        type: 3}
      propertyPath: m_LocalRotation.x
      value: -0
      objectReference: {fileID: 0}
    - target: {fileID: 2707371617930276137, guid: 683e15818464c3c45ac66f8838be71ee,
        type: 3}
      propertyPath: m_LocalRotation.y
      value: -0
      objectReference: {fileID: 0}
    - target: {fileID: 2707371617930276137, guid: 683e15818464c3c45ac66f8838be71ee,
        type: 3}
      propertyPath: m_LocalRotation.z
      value: -0
      objectReference: {fileID: 0}
    - target: {fileID: 2707371617930276137, guid: 683e15818464c3c45ac66f8838be71ee,
        type: 3}
      propertyPath: m_LocalRotation.w
      value: 1
      objectReference: {fileID: 0}
    - target: {fileID: 2707371617930276137, guid: 683e15818464c3c45ac66f8838be71ee,
        type: 3}
      propertyPath: m_RootOrder
      value: 0
      objectReference: {fileID: 0}
    - target: {fileID: 2707371617930276137, guid: 683e15818464c3c45ac66f8838be71ee,
        type: 3}
      propertyPath: m_LocalEulerAnglesHint.x
      value: 0
      objectReference: {fileID: 0}
    - target: {fileID: 2707371617930276137, guid: 683e15818464c3c45ac66f8838be71ee,
        type: 3}
      propertyPath: m_LocalEulerAnglesHint.y
      value: 0
      objectReference: {fileID: 0}
    - target: {fileID: 2707371617930276137, guid: 683e15818464c3c45ac66f8838be71ee,
        type: 3}
      propertyPath: m_LocalEulerAnglesHint.z
      value: 0
      objectReference: {fileID: 0}
    - target: {fileID: 3476998310660139546, guid: 683e15818464c3c45ac66f8838be71ee,
        type: 3}
      propertyPath: m_LocalScale.x
      value: 5
      objectReference: {fileID: 0}
    - target: {fileID: 3476998310660139546, guid: 683e15818464c3c45ac66f8838be71ee,
        type: 3}
      propertyPath: m_LocalScale.y
      value: 5
      objectReference: {fileID: 0}
    - target: {fileID: 3476998310660139546, guid: 683e15818464c3c45ac66f8838be71ee,
        type: 3}
      propertyPath: m_LocalScale.z
      value: 5
      objectReference: {fileID: 0}
    m_RemovedComponents: []
  m_SourcePrefab: {fileID: 100100000, guid: 683e15818464c3c45ac66f8838be71ee, type: 3}
